<svg xmlns="http://www.w3.org/2000/svg" xmlns:xlink="http://www.w3.org/1999/xlink" width="96" height="96" viewBox="0 0 96 96">
  <defs>
    <clipPath id="clip-Artboard_7">
      <rect width="96" height="96"/>
    </clipPath>
  </defs>
  <g id="Artboard_7" data-name="Artboard – 7" clip-path="url(#clip-Artboard_7)">
    <g id="Group_135" data-name="Group 135" transform="translate(-5133 662)">
      <g id="Group_121" data-name="Group 121" transform="translate(4993.848 -2476.5)">
        <path id="Path_34" data-name="Path 34" d="M187.652,1842.5a20.5,20.5,0,1,0,20.5,20.5A20.5,20.5,0,0,0,187.652,1842.5Zm0,32.517A12.017,12.017,0,1,1,199.669,1863,12.017,12.017,0,0,1,187.652,1875.017Z" fill="none" stroke="#3d73d3" stroke-miterlimit="10" stroke-width="3"/>
        <line id="Line_1" data-name="Line 1" x1="6.971" y2="6.971" transform="translate(194.203 1849.479)" fill="none" stroke="#3d73d3" stroke-miterlimit="10" stroke-width="3"/>
        <line id="Line_2" data-name="Line 2" x1="6.971" y2="6.971" transform="translate(174.131 1869.55)" fill="none" stroke="#3d73d3" stroke-miterlimit="10" stroke-width="3"/>
        <line id="Line_3" data-name="Line 3" x2="6.971" y2="6.971" transform="translate(174.131 1849.479)" fill="none" stroke="#3d73d3" stroke-miterlimit="10" stroke-width="3"/>
        <line id="Line_4" data-name="Line 4" x2="6.971" y2="6.971" transform="translate(194.203 1869.55)" fill="none" stroke="#3d73d3" stroke-miterlimit="10" stroke-width="3"/>
      </g>
    </g>
  </g>
</svg>
